…
    ## [1] 50400

``` r
ncol(accel_data)
```

    ## [1] 6

``` r
accel_data
```

    ## # A tibble: 50,400 × 6
    ## # Groups:   week, day_id [35]
    ##     week day_id day    day_type activity_minute activity_counts
    ##    <dbl>  <dbl> <chr>  <chr>              <int>           <dbl>
    ##  1     1      1 Friday weekend                1              88
    ##  2     1      1 Friday weekend                2              82
    ##  3     1      1 Friday weekend                3              64
    ##  4     1      1 Friday weekend                4              70
    ##  5     1      1 Friday weekend                5              75
    ##  6     1      1 Friday weekend                6              66
    ##  7     1      1 Friday weekend                7              54
    ##  8     1      1 Friday weekend                8              48
    ##  9     1      1 Friday weekend                9              55
    ## 10     1      1 Friday weekend               10              43
    ## # … with 50,390 more rows
…
``` r
accel_data
```

    ## # A tibble: 50,400 × 6
    ## # Groups:   week, day_id [35]
    ##     week day_id day    day_type activity_minute activity_counts
    ##    <dbl>  <dbl> <chr>  <chr>              <int>           <dbl>
    ##  1     1      1 Friday weekend                1              88
    ##  2     1      1 Friday weekend                2              82
    ##  3     1      1 Friday weekend                3              64
    ##  4     1      1 Friday weekend                4              70
    ##  5     1      1 Friday weekend                5              75
    ##  6     1      1 Friday weekend                6              66
    ##  7     1      1 Friday weekend                7              54
    ##  8     1      1 Friday weekend                8              48
    ##  9     1      1 Friday weekend                9              55
    ## 10     1      1 Friday weekend               10              43
    ## # … with 50,390 more rows
…
